0. 10 ,77.95,9.82,15,45,Damned If You Do
1. 10 ,72.34,8.54,19,45,DNR
2. 10 ,74.91,9.46,17,45,Fidelity
3. 10 ,69.22,9.47,110,45,Histories
4. 10 ,69.69,9.38,14,45,Maternity
5. 10 ,78.88,8.77,13,45,Occam's Razor
6. 10 ,70.18,9.85,11,45,Pilot
7. 10 ,79.33,9.89,12,45,Paternity
8. 10 ,69.44,9.78,18,45,Poison
9. 10 ,75.88,9.33,16,45,The Socratic Method
